{
    "style": {
        "baseDir": "less",
        "entries": ["master"],
        "dist": "css/compiled"
    },
    "scripts": {
        "baseDir": "scripts",
        "entries": ["master"],
        "dist": "scripts/compiled"
    },

}

    // "gulp-util": "*",
    // "gulp-load-plugins": "*",
    // "gulp-clean": "*",
    // "tiny-lr": "*",